<?xml version="1.0" encoding="UTF-8" standalone="no"?>
<svg
   width="16"
   height="16"
   fill="currentColor"
   class="bi bi-tree"
   viewBox="0 0 16 16"
   version="1.1"
   id="svg4"
   sodipodi:docname="tree.svg"
   inkscape:version="1.1.2 (0a00cf5339, 2022-02-04)"
   xmlns:inkscape="http://www.inkscape.org/namespaces/inkscape"
   xmlns:sodipodi="http://sodipodi.sourceforge.net/DTD/sodipodi-0.dtd"
   xmlns="http://www.w3.org/2000/svg"
   xmlns:svg="http://www.w3.org/2000/svg">
  <defs
     id="defs8" />
  <sodipodi:namedview
     id="namedview6"
     pagecolor="#505050"
     bordercolor="#eeeeee"
     borderopacity="1"
     inkscape:pageshadow="0"
     inkscape:pageopacity="0"
     inkscape:pagecheckerboard="0"
     showgrid="false"
     inkscape:snap-page="true"
     inkscape:snap-bbox="true"
     inkscape:bbox-nodes="true"
     inkscape:zoom="29"
     inkscape:cx="7.9827586"
     inkscape:cy="8"
     inkscape:window-width="1280"
     inkscape:window-height="987"
     inkscape:window-x="0"
     inkscape:window-y="0"
     inkscape:window-maximized="1"
     inkscape:current-layer="svg4" />
  <path
     d="m 8.4160366,0.22263172 a 0.50004408,0.50004408 0 0 0 -0.8320732,0 L 4.5836989,4.7230284 a 0.50004408,0.50004408 0 0 0 0.4160366,0.7770684 h 0.098008 L 3.075566,8.7353821 A 0.50004408,0.50004408 0 0 0 3.4996033,9.5004495 H 3.6906201 L 2.0524757,12.776738 a 0.50004408,0.50004408 0 0 0 0.4470396,0.724064 h 4.5003965 v 2.50022 h 2.0001763 v -2.50022 h 4.5003959 a 0.50004408,0.50004408 0 0 0 0.447039,-0.724064 L 12.31038,9.5004495 h 0.191017 A 0.50004408,0.50004408 0 0 0 12.925433,8.7353821 L 10.902256,5.5000968 h 0.09801 A 0.50004408,0.50004408 0 0 0 11.416299,4.7230284 Z M 6.4368622,4.7580316 A 0.50004408,0.50004408 0 0 0 5.9998238,4.5000087 H 5.9338179 L 8,1.4007355 10.066182,4.5000087 h -0.06601 A 0.50004408,0.50004408 0 0 0 9.5761387,5.2650762 l 2.0221783,3.2352852 h -0.09801 a 0.50004408,0.50004408 0 0 0 -0.447039,0.7240637 l 1.637143,3.2762879 H 3.3085864 L 4.9467308,9.2244251 A 0.50004408,0.50004408 0 0 0 4.4996915,8.5003614 H 4.4016828 L 6.423861,5.2650762 a 0.50004408,0.50004408 0 0 0 0.013001,-0.5070446 z"
     id="path2"
     style="fill:#ffffff;stroke:none;stroke-width:1.00009" />
</svg>
